%YAML 1.1
%TAG !u! tag:unity3d.com,2011:
--- !u!114 &11400000
MonoBehaviour:
  m_ObjectHideFlags: 0
  m_CorrespondingSourceObject: {fileID: 0}
  m_PrefabInstance: {fileID: 0}
  m_PrefabAsset: {fileID: 0}
  m_GameObject: {fileID: 0}
  m_Enabled: 1
  m_EditorHideFlags: 0
  m_Script: {fileID: 11500000, guid: 3763f755efd838b499316ebfa7ea31ec, type: 3}
  m_Name: Milo
  m_EditorClassIdentifier: 
  name: 
  image: {fileID: 0}
  health: 0
  power: 0
  experience: 0
  level: 0
